{"content":[{"id":76,"type":"TRANSFER","fromAccountId":1,"fromAccountName":"N26 Girokonto","toAccountId":2,"toAccountName":"ING Extra-Konto","amount":500.00,"transactionDate":"2026-12-26T10:00:00","status":"COMPLETED","payee":null,"categoryId":null,"categoryName":null,"memo":"Sparrate","tags":null,"number":null,"paymentMethod":"NONE","assetId":null,"assetName":null,"units":null,"sortOrder":0,"splits":[]},{"id":74,"type":"INCOME","fromAccountId":null,"fromAccountName":null,"toAccountId":1,"toAccountName":"N26 Girokonto","amount":3450.00,"transactionDate":"2026-12-25T09:00:00","status":"COMPLETED","payee":"Global Tech GmbH","categoryId":17,"categoryName":"Einkommen:Gehalt","memo":"Gehalt DECEMBER","tags":null,"number":null,"paymentMethod":"NONE","assetId":null,"assetName":null,"units":null,"sortOrder":0,"splits":[]},{"id":75,"type":"EXPENSE","fromAccountId":1,"fromAccountName":"N26 Girokonto","toAccountId":null,"toAccountName":null,"amount":1200.00,"transactionDate":"2026-12-01T10:00:00","status":"COMPLETED","payee":"Hausverwaltung Schmidt","categoryId":2,"categoryName":"Wohnen:Miete","memo":"Warmmiete","tags":null,"number":null,"paymentMethod":"NONE","assetId":null,"assetName":null,"units":null,"sortOrder":0,"splits":[]},{"id":73,"type":"TRANSFER","fromAccountId":1,"fromAccountName":"N26 Girokonto","toAccountId":2,"toAccountName":"ING Extra-Konto","amount":500.00,"transactionDate":"2026-11-26T10:00:00","status":"COMPLETED","payee":null,"categoryId":null,"categoryName":null,"memo":"Sparrate","tags":null,"number":null,"paymentMethod":"NONE","assetId":null,"assetName":null,"units":null,"sortOrder":0,"splits":[]},{"id":71,"type":"INCOME","fromAccountId":null,"fromAccountName":null,"toAccountId":1,"toAccountName":"N26 Girokonto","amount":3450.00,"transactionDate":"2026-11-25T09:00:00","status":"COMPLETED","payee":"Global Tech GmbH","categoryId":17,"categoryName":"Einkommen:Gehalt","memo":"Gehalt NOVEMBER","tags":null,"number":null,"paymentMethod":"NONE","assetId":null,"assetName":null,"units":null,"sortOrder":0,"splits":[]},{"id":72,"type":"EXPENSE","fromAccountId":1,"fromAccountName":"N26 Girokonto","toAccountId":null,"toAccountName":null,"amount":1200.00,"transactionDate":"2026-11-01T10:00:00","status":"COMPLETED","payee":"Hausverwaltung Schmidt","categoryId":2,"categoryName":"Wohnen:Miete","memo":"Warmmiete","tags":null,"number":null,"paymentMethod":"NONE","assetId":null,"assetName":null,"units":null,"sortOrder":0,"splits":[]},{"id":70,"type":"TRANSFER","fromAccountId":1,"fromAccountName":"N26 Girokonto","toAccountId":2,"toAccountName":"ING Extra-Konto","amount":500.00,"transactionDate":"2026-10-26T10:00:00","status":"COMPLETED","payee":null,"categoryId":null,"categoryName":null,"memo":"Sparrate","tags":null,"number":null,"paymentMethod":"NONE","assetId":null,"assetName":null,"units":null,"sortOrder":0,"splits":[]},{"id":68,"type":"INCOME","fromAccountId":null,"fromAccountName":null,"toAccountId":1,"toAccountName":"N26 Girokonto","amount":3450.00,"transactionDate":"2026-10-25T09:00:00","status":"COMPLETED","payee":"Global Tech GmbH","categoryId":17,"categoryName":"Einkommen:Gehalt","memo":"Gehalt OCTOBER","tags":null,"number":null,"paymentMethod":"NONE","assetId":null,"assetName":null,"units":null,"sortOrder":0,"splits":[]},{"id":69,"type":"EXPENSE","fromAccountId":1,"fromAccountName":"N26 Girokonto","toAccountId":null,"toAccountName":null,"amount":1200.00,"transactionDate":"2026-10-01T10:00:00","status":"COMPLETED","payee":"Hausverwaltung Schmidt","categoryId":2,"categoryName":"Wohnen:Miete","memo":"Warmmiete","tags":null,"number":null,"paymentMethod":"NONE","assetId":null,"assetName":null,"units":null,"sortOrder":0,"splits":[]},{"id":67,"type":"TRANSFER","fromAccountId":1,"fromAccountName":"N26 Girokonto","toAccountId":2,"toAccountName":"ING Extra-Konto","amount":500.00,"transactionDate":"2026-09-26T10:00:00","status":"COMPLETED","payee":null,"categoryId":null,"categoryName":null,"memo":"Sparrate","tags":null,"number":null,"paymentMethod":"NONE","assetId":null,"assetName":null,"units":null,"sortOrder":0,"splits":[]},{"id":65,"type":"INCOME","fromAccountId":null,"fromAccountName":null,"toAccountId":1,"toAccountName":"N26 Girokonto","amount":3450.00,"transactionDate":"2026-09-25T09:00:00","status":"COMPLETED","payee":"Global Tech GmbH","categoryId":17,"categoryName":"Einkommen:Gehalt","memo":"Gehalt SEPTEMBER","tags":null,"number":null,"paymentMethod":"NONE","assetId":null,"assetName":null,"units":null,"sortOrder":0,"splits":[]},{"id":66,"type":"EXPENSE","fromAccountId":1,"fromAccountName":"N26 Girokonto","toAccountId":null,"toAccountName":null,"amount":1200.00,"transactionDate":"2026-09-01T10:00:00","status":"COMPLETED","payee":"Hausverwaltung Schmidt","categoryId":2,"categoryName":"Wohnen:Miete","memo":"Warmmiete","tags":null,"number":null,"paymentMethod":"NONE","assetId":null,"assetName":null,"units":null,"sortOrder":0,"splits":[]},{"id":64,"type":"TRANSFER","fromAccountId":1,"fromAccountName":"N26 Girokonto","toAccountId":2,"toAccountName":"ING Extra-Konto","amount":500.00,"transactionDate":"2026-08-26T10:00:00","status":"COMPLETED","payee":null,"categoryId":null,"categoryName":null,"memo":"Sparrate","tags":null,"number":null,"paymentMethod":"NONE","assetId":null,"assetName":null,"units":null,"sortOrder":0,"splits":[]},{"id":62,"type":"INCOME","fromAccountId":null,"fromAccountName":null,"toAccountId":1,"toAccountName":"N26 Girokonto","amount":3450.00,"transactionDate":"2026-08-25T09:00:00","status":"COMPLETED","payee":"Global Tech GmbH","categoryId":17,"categoryName":"Einkommen:Gehalt","memo":"Gehalt AUGUST","tags":null,"number":null,"paymentMethod":"NONE","assetId":null,"assetName":null,"units":null,"sortOrder":0,"splits":[]},{"id":63,"type":"EXPENSE","fromAccountId":1,"fromAccountName":"N26 Girokonto","toAccountId":null,"toAccountName":null,"amount":1200.00,"transactionDate":"2026-08-01T10:00:00","status":"COMPLETED","payee":"Hausverwaltung Schmidt","categoryId":2,"categoryName":"Wohnen:Miete","memo":"Warmmiete","tags":null,"number":null,"paymentMethod":"NONE","assetId":null,"assetName":null,"units":null,"sortOrder":0,"splits":[]},{"id":61,"type":"TRANSFER","fromAccountId":1,"fromAccountName":"N26 Girokonto","toAccountId":2,"toAccountName":"ING Extra-Konto","amount":500.00,"transactionDate":"2026-07-26T10:00:00","status":"COMPLETED","payee":null,"categoryId":null,"categoryName":null,"memo":"Sparrate","tags":null,"number":null,"paymentMethod":"NONE","assetId":null,"assetName":null,"units":null,"sortOrder":0,"splits":[]},{"id":59,"type":"INCOME","fromAccountId":null,"fromAccountName":null,"toAccountId":1,"toAccountName":"N26 Girokonto","amount":3450.00,"transactionDate":"2026-07-25T09:00:00","status":"COMPLETED","payee":"Global Tech GmbH","categoryId":17,"categoryName":"Einkommen:Gehalt","memo":"Gehalt JULY","tags":null,"number":null,"paymentMethod":"NONE","assetId":null,"assetName":null,"units":null,"sortOrder":0,"splits":[]},{"id":60,"type":"EXPENSE","fromAccountId":1,"fromAccountName":"N26 Girokonto","toAccountId":null,"toAccountName":null,"amount":1200.00,"transactionDate":"2026-07-01T10:00:00","status":"COMPLETED","payee":"Hausverwaltung Schmidt","categoryId":2,"categoryName":"Wohnen:Miete","memo":"Warmmiete","tags":null,"number":null,"paymentMethod":"NONE","assetId":null,"assetName":null,"units":null,"sortOrder":0,"splits":[]},{"id":58,"type":"TRANSFER","fromAccountId":1,"fromAccountName":"N26 Girokonto","toAccountId":2,"toAccountName":"ING Extra-Konto","amount":500.00,"transactionDate":"2026-06-26T10:00:00","status":"COMPLETED","payee":null,"categoryId":null,"categoryName":null,"memo":"Sparrate","tags":null,"number":null,"paymentMethod":"NONE","assetId":null,"assetName":null,"units":null,"sortOrder":0,"splits":[]},{"id":56,"type":"INCOME","fromAccountId":null,"fromAccountName":null,"toAccountId":1,"toAccountName":"N26 Girokonto","amount":3450.00,"transactionDate":"2026-06-25T09:00:00","status":"COMPLETED","payee":"Global Tech GmbH","categoryId":17,"categoryName":"Einkommen:Gehalt","memo":"Gehalt JUNE","tags":null,"number":null,"paymentMethod":"NONE","assetId":null,"assetName":null,"units":null,"sortOrder":0,"splits":[]},{"id":57,"type":"EXPENSE","fromAccountId":1,"fromAccountName":"N26 Girokonto","toAccountId":null,"toAccountName":null,"amount":1200.00,"transactionDate":"2026-06-01T10:00:00","status":"COMPLETED","payee":"Hausverwaltung Schmidt","categoryId":2,"categoryName":"Wohnen:Miete","memo":"Warmmiete","tags":null,"number":null,"paymentMethod":"NONE","assetId":null,"assetName":null,"units":null,"sortOrder":0,"splits":[]},{"id":55,"type":"TRANSFER","fromAccountId":1,"fromAccountName":"N26 Girokonto","toAccountId":2,"toAccountName":"ING Extra-Konto","amount":500.00,"transactionDate":"2026-05-26T10:00:00","status":"COMPLETED","payee":null,"categoryId":null,"categoryName":null,"memo":"Sparrate","tags":null,"number":null,"paymentMethod":"NONE","assetId":null,"assetName":null,"units":null,"sortOrder":0,"splits":[]},{"id":53,"type":"INCOME","fromAccountId":null,"fromAccountName":null,"toAccountId":1,"toAccountName":"N26 Girokonto","amount":3450.00,"transactionDate":"2026-05-25T09:00:00","status":"COMPLETED","payee":"Global Tech GmbH","categoryId":17,"categoryName":"Einkommen:Gehalt","memo":"Gehalt MAY","tags":null,"number":null,"paymentMethod":"NONE","assetId":null,"assetName":null,"units":null,"sortOrder":0,"splits":[]},{"id":54,"type":"EXPENSE","fromAccountId":1,"fromAccountName":"N26 Girokonto","toAccountId":null,"toAccountName":null,"amount":1200.00,"transactionDate":"2026-05-01T10:00:00","status":"COMPLETED","payee":"Hausverwaltung Schmidt","categoryId":2,"categoryName":"Wohnen:Miete","memo":"Warmmiete","tags":null,"number":null,"paymentMethod":"NONE","assetId":null,"assetName":null,"units":null,"sortOrder":0,"splits":[]},{"id":52,"type":"TRANSFER","fromAccountId":1,"fromAccountName":"N26 Girokonto","toAccountId":2,"toAccountName":"ING Extra-Konto","amount":500.00,"transactionDate":"2026-04-26T10:00:00","status":"COMPLETED","payee":null,"categoryId":null,"categoryName":null,"memo":"Sparrate","tags":null,"number":null,"paymentMethod":"NONE","assetId":null,"assetName":null,"units":null,"sortOrder":0,"splits":[]},{"id":50,"type":"INCOME","fromAccountId":null,"fromAccountName":null,"toAccountId":1,"toAccountName":"N26 Girokonto","amount":3450.00,"transactionDate":"2026-04-25T09:00:00","status":"COMPLETED","payee":"Global Tech GmbH","categoryId":17,"categoryName":"Einkommen:Gehalt","memo":"Gehalt APRIL","tags":null,"number":null,"paymentMethod":"NONE","assetId":null,"assetName":null,"units":null,"sortOrder":0,"splits":[]},{"id":51,"type":"EXPENSE","fromAccountId":1,"fromAccountName":"N26 Girokonto","toAccountId":null,"toAccountName":null,"amount":1200.00,"transactionDate":"2026-04-01T10:00:00","status":"COMPLETED","payee":"Hausverwaltung Schmidt","categoryId":2,"categoryName":"Wohnen:Miete","memo":"Warmmiete","tags":null,"number":null,"paymentMethod":"NONE","assetId":null,"assetName":null,"units":null,"sortOrder":0,"splits":[]},{"id":49,"type":"TRANSFER","fromAccountId":1,"fromAccountName":"N26 Girokonto","toAccountId":2,"toAccountName":"ING Extra-Konto","amount":500.00,"transactionDate":"2026-03-26T10:00:00","status":"COMPLETED","payee":null,"categoryId":null,"categoryName":null,"memo":"Sparrate","tags":null,"number":null,"paymentMethod":"NONE","assetId":null,"assetName":null,"units":null,"sortOrder":0,"splits":[]},{"id":47,"type":"INCOME","fromAccountId":null,"fromAccountName":null,"toAccountId":1,"toAccountName":"N26 Girokonto","amount":3450.00,"transactionDate":"2026-03-25T09:00:00","status":"COMPLETED","payee":"Global Tech GmbH","categoryId":17,"categoryName":"Einkommen:Gehalt","memo":"Gehalt MARCH","tags":null,"number":null,"paymentMethod":"NONE","assetId":null,"assetName":null,"units":null,"sortOrder":0,"splits":[]},{"id":48,"type":"EXPENSE","fromAccountId":1,"fromAccountName":"N26 Girokonto","toAccountId":null,"toAccountName":null,"amount":1200.00,"transactionDate":"2026-03-01T10:00:00","status":"COMPLETED","payee":"Hausverwaltung Schmidt","categoryId":2,"categoryName":"Wohnen:Miete","memo":"Warmmiete","tags":null,"number":null,"paymentMethod":"NONE","assetId":null,"assetName":null,"units":null,"sortOrder":0,"splits":[]},{"id":46,"type":"TRANSFER","fromAccountId":1,"fromAccountName":"N26 Girokonto","toAccountId":2,"toAccountName":"ING Extra-Konto","amount":500.00,"transactionDate":"2026-02-26T10:00:00","status":"COMPLETED","payee":null,"categoryId":null,"categoryName":null,"memo":"Sparrate","tags":null,"number":null,"paymentMethod":"NONE","assetId":null,"assetName":null,"units":null,"sortOrder":0,"splits":[]},{"id":44,"type":"INCOME","fromAccountId":null,"fromAccountName":null,"toAccountId":1,"toAccountName":"N26 Girokonto","amount":3450.00,"transactionDate":"2026-02-25T09:00:00","status":"COMPLETED","payee":"Global Tech GmbH","categoryId":17,"categoryName":"Einkommen:Gehalt","memo":"Gehalt FEBRUARY","tags":null,"number":null,"paymentMethod":"NONE","assetId":null,"assetName":null,"units":null,"sortOrder":0,"splits":[]},{"id":45,"type":"EXPENSE","fromAccountId":1,"fromAccountName":"N26 Girokonto","toAccountId":null,"toAccountName":null,"amount":1200.00,"transactionDate":"2026-02-01T10:00:00","status":"COMPLETED","payee":"Hausverwaltung Schmidt","categoryId":2,"categoryName":"Wohnen:Miete","memo":"Warmmiete","tags":null,"number":null,"paymentMethod":"NONE","assetId":null,"assetName":null,"units":null,"sortOrder":0,"splits":[]},{"id":43,"type":"TRANSFER","fromAccountId":1,"fromAccountName":"N26 Girokonto","toAccountId":2,"toAccountName":"ING Extra-Konto","amount":500.00,"transactionDate":"2026-01-26T10:00:00","status":"COMPLETED","payee":null,"categoryId":null,"categoryName":null,"memo":"Sparrate","tags":null,"number":null,"paymentMethod":"NONE","assetId":null,"assetName":null,"units":null,"sortOrder":0,"splits":[]},{"id":41,"type":"INCOME","fromAccountId":null,"fromAccountName":null,"toAccountId":1,"toAccountName":"N26 Girokonto","amount":3450.00,"transactionDate":"2026-01-25T09:00:00","status":"COMPLETED","payee":"Global Tech GmbH","categoryId":17,"categoryName":"Einkommen:Gehalt","memo":"Gehalt JANUARY","tags":null,"number":null,"paymentMethod":"NONE","assetId":null,"assetName":null,"units":null,"sortOrder":0,"splits":[]},{"id":4,"type":"TRANSFER","fromAccountId":1,"fromAccountName":"N26 Girokonto","toAccountId":3,"toAccountName":"Portfolio","amount":4496.30,"transactionDate":"2026-01-12T20:09:17.33571","status":"COMPLETED","payee":"Bitcoin EUR","categoryId":null,"categoryName":null,"memo":"Acquisition of 0.10579528 units of BTC-EUR","tags":null,"number":null,"paymentMethod":"TRADE","assetId":4,"assetName":"Bitcoin EUR","units":0.10579528,"sortOrder":0,"splits":[]},{"id":3,"type":"TRANSFER","fromAccountId":1,"fromAccountName":"N26 Girokonto","toAccountId":3,"toAccountName":"Portfolio","amount":1458.00,"transactionDate":"2026-01-12T20:09:17.334657","status":"COMPLETED","payee":"Amazon.com, Inc.","categoryId":null,"categoryName":null,"memo":"Acquisition of 10.0 units of AMZN","tags":null,"number":null,"paymentMethod":"TRADE","assetId":2,"assetName":"Amazon.com, Inc.","units":10.00000000,"sortOrder":0,"splits":[]},{"id":2,"type":"TRANSFER","fromAccountId":1,"fromAccountName":"N26 Girokonto","toAccountId":3,"toAccountName":"Portfolio","amount":3304.00,"transactionDate":"2026-01-12T20:09:17.333433","status":"COMPLETED","payee":"Advanced Micro Devices, Inc.","categoryId":null,"categoryName":null,"memo":"Acquisition of 20.0 units of AMD","tags":null,"number":null,"paymentMethod":"TRADE","assetId":3,"assetName":"Advanced Micro Devices, Inc.","units":20.00000000,"sortOrder":0,"splits":[]},{"id":1,"type":"TRANSFER","fromAccountId":1,"fromAccountName":"N26 Girokonto","toAccountId":3,"toAccountName":"Portfolio","amount":70499.33,"transactionDate":"2026-01-12T20:09:17.331618","status":"COMPLETED","payee":"Vanguard FTSE All-World","categoryId":null,"categoryName":null,"memo":"Acquisition of 668.24008 units of VWCE.DE","tags":null,"number":null,"paymentMethod":"TRADE","assetId":1,"assetName":"Vanguard FTSE All-World","units":668.24008000,"sortOrder":0,"splits":[]},{"id":42,"type":"EXPENSE","fromAccountId":1,"fromAccountName":"N26 Girokonto","toAccountId":null,"toAccountName":null,"amount":1200.00,"transactionDate":"2026-01-01T10:00:00","status":"COMPLETED","payee":"Hausverwaltung Schmidt","categoryId":2,"categoryName":"Wohnen:Miete","memo":"Warmmiete","tags":null,"number":null,"paymentMethod":"NONE","assetId":null,"assetName":null,"units":null,"sortOrder":0,"splits":[]},{"id":40,"type":"TRANSFER","fromAccountId":1,"fromAccountName":"N26 Girokonto","toAccountId":2,"toAccountName":"ING Extra-Konto","amount":500.00,"transactionDate":"2025-12-26T10:00:00","status":"COMPLETED","payee":null,"categoryId":null,"categoryName":null,"memo":"Sparrate","tags":null,"number":null,"paymentMethod":"NONE","assetId":null,"assetName":null,"units":null,"sortOrder":0,"splits":[]},{"id":38,"type":"INCOME","fromAccountId":null,"fromAccountName":null,"toAccountId":1,"toAccountName":"N26 Girokonto","amount":3450.00,"transactionDate":"2025-12-25T09:00:00","status":"COMPLETED","payee":"Global Tech GmbH","categoryId":17,"categoryName":"Einkommen:Gehalt","memo":"Gehalt DECEMBER","tags":null,"number":null,"paymentMethod":"NONE","assetId":null,"assetName":null,"units":null,"sortOrder":0,"splits":[]},{"id":39,"type":"EXPENSE","fromAccountId":1,"fromAccountName":"N26 Girokonto","toAccountId":null,"toAccountName":null,"amount":1200.00,"transactionDate":"2025-12-01T10:00:00","status":"COMPLETED","payee":"Hausverwaltung Schmidt","categoryId":2,"categoryName":"Wohnen:Miete","memo":"Warmmiete","tags":null,"number":null,"paymentMethod":"NONE","assetId":null,"assetName":null,"units":null,"sortOrder":0,"splits":[]},{"id":37,"type":"TRANSFER","fromAccountId":1,"fromAccountName":"N26 Girokonto","toAccountId":2,"toAccountName":"ING Extra-Konto","amount":500.00,"transactionDate":"2025-11-26T10:00:00","status":"COMPLETED","payee":null,"categoryId":null,"categoryName":null,"memo":"Sparrate","tags":null,"number":null,"paymentMethod":"NONE","assetId":null,"assetName":null,"units":null,"sortOrder":0,"splits":[]},{"id":35,"type":"INCOME","fromAccountId":null,"fromAccountName":null,"toAccountId":1,"toAccountName":"N26 Girokonto","amount":3450.00,"transactionDate":"2025-11-25T09:00:00","status":"COMPLETED","payee":"Global Tech GmbH","categoryId":17,"categoryName":"Einkommen:Gehalt","memo":"Gehalt NOVEMBER","tags":null,"number":null,"paymentMethod":"NONE","assetId":null,"assetName":null,"units":null,"sortOrder":0,"splits":[]},{"id":36,"type":"EXPENSE","fromAccountId":1,"fromAccountName":"N26 Girokonto","toAccountId":null,"toAccountName":null,"amount":1200.00,"transactionDate":"2025-11-01T10:00:00","status":"COMPLETED","payee":"Hausverwaltung Schmidt","categoryId":2,"categoryName":"Wohnen:Miete","memo":"Warmmiete","tags":null,"number":null,"paymentMethod":"NONE","assetId":null,"assetName":null,"units":null,"sortOrder":0,"splits":[]},{"id":34,"type":"TRANSFER","fromAccountId":1,"fromAccountName":"N26 Girokonto","toAccountId":2,"toAccountName":"ING Extra-Konto","amount":500.00,"transactionDate":"2025-10-26T10:00:00","status":"COMPLETED","payee":null,"categoryId":null,"categoryName":null,"memo":"Sparrate","tags":null,"number":null,"paymentMethod":"NONE","assetId":null,"assetName":null,"units":null,"sortOrder":0,"splits":[]},{"id":32,"type":"INCOME","fromAccountId":null,"fromAccountName":null,"toAccountId":1,"toAccountName":"N26 Girokonto","amount":3450.00,"transactionDate":"2025-10-25T09:00:00","status":"COMPLETED","payee":"Global Tech GmbH","categoryId":17,"categoryName":"Einkommen:Gehalt","memo":"Gehalt OCTOBER","tags":null,"number":null,"paymentMethod":"NONE","assetId":null,"assetName":null,"units":null,"sortOrder":0,"splits":[]},{"id":33,"type":"EXPENSE","fromAccountId":1,"fromAccountName":"N26 Girokonto","toAccountId":null,"toAccountName":null,"amount":1200.00,"transactionDate":"2025-10-01T10:00:00","status":"COMPLETED","payee":"Hausverwaltung Schmidt","categoryId":2,"categoryName":"Wohnen:Miete","memo":"Warmmiete","tags":null,"number":null,"paymentMethod":"NONE","assetId":null,"assetName":null,"units":null,"sortOrder":0,"splits":[]},{"id":31,"type":"TRANSFER","fromAccountId":1,"fromAccountName":"N26 Girokonto","toAccountId":2,"toAccountName":"ING Extra-Konto","amount":500.00,"transactionDate":"2025-09-26T10:00:00","status":"COMPLETED","payee":null,"categoryId":null,"categoryName":null,"memo":"Sparrate","tags":null,"number":null,"paymentMethod":"NONE","assetId":null,"assetName":null,"units":null,"sortOrder":0,"splits":[]}],"page":0,"size":50,"totalElements":76,"totalPages":2}